<svg width="46" height="52" viewBox="0 0 46 52" fill="none" xmlns="http://www.w3.org/2000/svg">
<path d="M33.3125 14.2812V11.4688C33.3125 11.2109 33.1016 11 32.8438 11H10.3438C10.0859 11 9.875 11.2109 9.875 11.4688V14.2812C9.875 14.5391 10.0859 14.75 10.3438 14.75H32.8438C33.1016 14.75 33.3125 14.5391 33.3125 14.2812ZM10.3438 19.4375C10.0859 19.4375 9.875 19.6484 9.875 19.9062V22.7188C9.875 22.9766 10.0859 23.1875 10.3438 23.1875H21.125C21.3828 23.1875 21.5938 22.9766 21.5938 22.7188V19.9062C21.5938 19.6484 21.3828 19.4375 21.125 19.4375H10.3438ZM32.375 26.2344C25.3848 26.2344 19.7188 31.9004 19.7188 38.8906C19.7188 45.8809 25.3848 51.5469 32.375 51.5469C39.3652 51.5469 45.0312 45.8809 45.0312 38.8906C45.0312 31.9004 39.3652 26.2344 32.375 26.2344ZM38.6738 45.1895C36.9922 46.8711 34.7539 47.7969 32.375 47.7969C29.9961 47.7969 27.7578 46.8711 26.0762 45.1895C24.3945 43.5078 23.4688 41.2695 23.4688 38.8906C23.4688 36.5117 24.3945 34.2734 26.0762 32.5918C27.7578 30.9102 29.9961 29.9844 32.375 29.9844C34.7539 29.9844 36.9922 30.9102 38.6738 32.5918C40.3555 34.2734 41.2812 36.5117 41.2812 38.8906C41.2812 41.2695 40.3555 43.5078 38.6738 45.1895ZM37.5898 34.4375H34.9941C34.8418 34.4375 34.7012 34.5078 34.6133 34.6309L30.8926 39.7754L29.5391 37.9062C29.4957 37.8459 29.4385 37.7968 29.3722 37.7631C29.3059 37.7295 29.2325 37.7123 29.1582 37.7129H26.5742C26.1934 37.7129 25.9707 38.1465 26.1934 38.457L30.5176 44.4395C30.7051 44.6973 31.0859 44.6973 31.2734 44.4395L37.9648 35.1816C38.1934 34.8711 37.9707 34.4375 37.5898 34.4375ZM18.7812 45.9219H5.1875V4.67188H38V24.8281C38 25.0859 38.2109 25.2969 38.4688 25.2969H41.75C42.0078 25.2969 42.2188 25.0859 42.2188 24.8281V2.32812C42.2188 1.29102 41.3809 0.453125 40.3438 0.453125H2.84375C1.80664 0.453125 0.96875 1.29102 0.96875 2.32812V48.2656C0.96875 49.3027 1.80664 50.1406 2.84375 50.1406H18.7812C19.0391 50.1406 19.25 49.9297 19.25 49.6719V46.3906C19.25 46.1328 19.0391 45.9219 18.7812 45.9219Z" fill="#23C66E"/>
</svg>
